Return meta data on CRAN and github packages — get_meta • pkgmeta
…
cran_packages
Character vector of CRAN packages. Ignored if cran_author is provided.

github_repos
Character vector of github repos

prefer_cran
When a package is both on CRAN and github, which information should be preferenced?

    Examples

get_meta(cran_author = "Hyndman")
#> # A tibble: 48 × 9
#>    package        date       title    description version authors url   cran_url
#>    <chr>          <date>     <chr>    <chr>       <chr>   <chr>   <chr> <chr>   
#>  1 bayesforecast  2021-06-17 "Bayesi… "Fit Bayes… 1.0.1   "Asael… http… https:/…
#>  2 bfast          2024-10-22 "Breaks… "Decomposi… 1.7.0   "Jan V… http… https:/…
#>  3 binb           2024-07-06 "'binb'… "A collect… 0.0.7   "Dirk … http… https:/…
#>  4 cricketdata    2025-03-25 "Intern… "Data on i… 0.3.0   "Rob H… http… https:/…
#>  5 demography     2023-02-08 "Foreca… "Functions… 2.0     "Rob H… http… https:/…
#>  6 DescTools      2025-03-28 "Tools … "A collect… 0.99.60 "Andri… http… https:/…
#>  7 distributional 2024-09-17 "Vector… "Vectorise… 0.5.0   "Mitch… http… https:/…
#>  8 eechidna       2021-02-25 "Explor… "Data from… 1.4.1   "Jerem… http… https:/…
#>  9 expsmooth      2015-04-09 "Data S… "Data sets… 2.3     "Rob J… http… https:/…
#> 10 fable          2024-11-05 "Foreca… "Provides … 0.4.1   "Mitch… http… https:/…
#> # ℹ 38 more rows
#> # ℹ 1 more variable: github_url <chr>
…
