…
- github_repos:

  Character vector of github repos

- prefer_cran:

  When a package is both on CRAN and github, which information should be
  preferenced?

## Examples

``` r
get_meta(cran_authors = "Hyndman")
#> # A tibble: 51 × 9
#>    package           date       title description version authors url   cran_url
#>    <chr>             <date>     <chr> <chr>       <chr>   <chr>   <chr> <chr>   
#>  1 bayesforecast     2025-06-05 "Bay… "Fit Bayes… 1.0.5   "Asael… http… https:/…
#>  2 bfast             2025-08-18 "Bre… "Decomposi… 1.7.1   "Jan V… http… https:/…
#>  3 binb              2024-07-06 "'bi… "A collect… 0.0.7   "Dirk … http… https:/…
#>  4 calcal            2025-07-22 "Cal… "An R impl… 1.0.0   "Rob H… http… https:/…
#>  5 conformalForecast 2025-10-06 "Con… "Methods a… 0.1.0   "Xiaoq… http… https:/…
#>  6 cricketdata       2025-03-25 "Int… "Data on i… 0.3.0   "Rob H… http… https:/…
#>  7 demography        2025-10-06 "For… "Functions… 2.0.1   "Rob H… http… https:/…
#>  8 DescTools         2025-03-28 "Too… "A collect… 0.99.60 "Andri… http… https:/…
#>  9 distributional    2024-09-17 "Vec… "Vectorise… 0.5.0   "Mitch… http… https:/…
#> 10 eechidna          2021-02-25 "Exp… "Data from… 1.4.1   "Jerem… http… https:/…
#> # ℹ 41 more rows
#> # ℹ 1 more variable: github_url <chr>
…
